{
  "errno":0,
  "data":{
    "total":14,
    "pages":5,
    "pageSize":3,
    "page":2,
    "list":[
      {
        "id":48,
        "userName":"8532600003",
        "mobile":"11222223",
        "name":"管理员22",
        "email":"1234@163.com",
        "avatar":null,
        "lastLoginTime":"2020-11-01T09:48:24",
        "lastLoginIp":"182.86.207.170",
        "status":1,
        "depart_id":0,
        "gmtCreate":"2020-11-01T09:48:24",
        "gmtModified":"2020-11-01T09:48:24"
      },
      {
        "id":49,
        "userName":"7623000006",
        "mobile":"123345667735",
        "name":"管理员5",
        "email":"1234@qq.com",
        "avatar":null,
        "lastLoginTime":"2020-11-01T09:48:24",
        "lastLoginIp":"111.73.172.255",
        "status":1,
        "depart_id":0,
        "gmtCreate":"2020-11-01T09:48:24",
        "gmtModified":"2020-11-01T09:48:24"
      },
      {
        "id":50,
        "userName":"8043300005",
        "mobile":"1233121",
        "name":"管理员23",
        "email":"12341@163.com",
        "avatar":null,
        "lastLoginTime":"2020-11-01T09:48:24",
        "lastLoginIp":"111.73.169.94",
        "status":1,
        "depart_id":0,
        "gmtCreate":"2020-11-01T09:48:24",
        "gmtModified":"2020-11-01T09:48:24"
      }
    ]
  },
  "errmsg":"成功"
}